<?xml version="1.0" encoding="utf-8"?>
<!-- Generator: Adobe Illustrator 24.1.2, SVG Export Plug-In . SVG Version: 6.00 Build 0)  -->
<svg version="1.1" id="Layer_1" xmlns="http://www.w3.org/2000/svg" xmlns:xlink="http://www.w3.org/1999/xlink" x="0px" y="0px"
	 viewBox="0 0 200 200" style="enable-background:new 0 0 200 200;" xml:space="preserve">
<style type="text/css">
	.st0{fill:none;}
	.st1{fill:#CC6699;}
	.st2{font-family:'MyriadPro-Regular';}
	.st3{font-size:281.9536px;}
</style>
<font horiz-adv-x="2048">
<!-- Times New Roman is a trademark of The Monotype Corporation. -->
<!-- Copyright: Copyright 2020 Adobe System Incorporated. All rights reserved. -->
<font-face font-family="MyriadPro-Regular" units-per-em="2048" underline-position="-223" underline-thickness="100"/>
<missing-glyph horiz-adv-x="1593" d="M284,0l0,1280l1024,0l0,-1280M316,32l960,0l0,1216l-960,0z"/>
<glyph unicode="5" horiz-adv-x="1024" d="M889,1356l-78,-170l-408,0l-89,-182C491,978 631,912 734,807C823,716 867,610 867,487C867,416 853,350 824,289C795,228 758,177 714,134C670,91 621,57 567,31C490,-6 412,-24 331,-24C250,-24 191,-10 154,18C117,45 98,76 98,109C98,128 106,144 121,159C136,173 156,180 179,180C196,180 212,177 225,172C238,167 260,153 291,131C341,96 392,79 443,79C521,79 590,109 649,168C708,227 737,298 737,383C737,465 711,542 658,613C605,684 533,738 440,777C367,807 268,824 143,829l260,527z"/>
</font>

	<rect x="26.42" y="-42.92" class="st0" width="144.64" height="644.83"/>
<text transform="matrix(1 0 0 1 26.4238 193.0752)" class="st1 st2 st3">5</text>
</svg>
