<?xml version="1.0" encoding="utf-8"?>
<!-- Generator: Adobe Illustrator 24.1.2, SVG Export Plug-In . SVG Version: 6.00 Build 0)  -->
<svg version="1.1" id="Layer_1" xmlns="http://www.w3.org/2000/svg" xmlns:xlink="http://www.w3.org/1999/xlink" x="0px" y="0px"
	 viewBox="0 0 200 200" style="enable-background:new 0 0 200 200;" xml:space="preserve">
<style type="text/css">
	.st0{fill:none;}
	.st1{fill:#FF0000;}
	.st2{font-family:'MyriadPro-Regular';}
	.st3{font-size:281.9536px;}
</style>
<font horiz-adv-x="2048">
<!-- Times New Roman is a trademark of The Monotype Corporation. -->
<!-- Copyright: Copyright 2020 Adobe System Incorporated. All rights reserved. -->
<font-face font-family="MyriadPro-Regular" units-per-em="2048" underline-position="-223" underline-thickness="100"/>
<missing-glyph horiz-adv-x="1593" d="M284,0l0,1280l1024,0l0,-1280M316,32l960,0l0,1216l-960,0z"/>
<glyph unicode="7" horiz-adv-x="1024" d="M206,1356l727,0l0,-38l-452,-1346l-112,0l405,1221l-373,0C326,1193 272,1184 240,1166C184,1135 139,1088 105,1024l-29,11z"/>
</font>

	<rect x="26.42" y="-42.92" class="st0" width="144.64" height="644.83"/>
<text transform="matrix(1 0 0 1 26.4238 193.0752)" class="st1 st2 st3">7</text>
</svg>
