<?xml version="1.0" encoding="utf-8"?>
<!-- Generator: Adobe Illustrator 24.1.2, SVG Export Plug-In . SVG Version: 6.00 Build 0)  -->
<svg version="1.1" id="Layer_1" xmlns="http://www.w3.org/2000/svg" xmlns:xlink="http://www.w3.org/1999/xlink" x="0px" y="0px"
	 viewBox="0 0 200 200" style="enable-background:new 0 0 200 200;" xml:space="preserve">
<style type="text/css">
	.st0{fill:#999999;stroke:#000000;stroke-miterlimit:10;}
	.st1{fill:#CCCCCC;stroke:#000000;stroke-miterlimit:10;}
</style>
<polygon class="st0" points="199,1 199,1 1,1 1,1 100,100 "/>
<polygon class="st0" points="100,100 1,1 1,199 "/>
<polygon class="st0" points="199,199 199,1 100,100 "/>
<polygon class="st0" points="1,199 1,199 199,199 199,199 100,100 "/>
<polygon points="199.5,199.5 0.5,199.5 0.5,199.5 0,200 0,200 200,200 200,200 199.5,199.5 "/>
<polygon points="0.5,0.5 0,0 0,200 0.5,199.5 "/>
<polygon points="199.5,0.5 199.5,199.5 200,200 200,0 "/>
<polygon points="0.5,0.5 199.5,0.5 199.5,0.5 200,0 200,0 0,0 0,0 0.5,0.5 "/>
<polygon points="199,199 199.5,199.5 199.5,0.5 199,1 "/>
<polygon points="0.5,0.5 0.5,0.5 1,1 1,1 199,1 199,1 199.5,0.5 199.5,0.5 "/>
<polygon points="199,199 1,199 1,199 0.5,199.5 0.5,199.5 199.5,199.5 199.5,199.5 199,199 "/>
<polygon points="1,1 0.5,0.5 0.5,199.5 1,199 "/>
<rect id="Center" x="25" y="25" class="st1" width="150" height="150"/>
</svg>
